# 3ds Max Wavefront OBJ Exporter v0.97b - (c)2007 guruware
# File Created: 29.06.2015 07:17:15

newmtl Material_primario
	Ns 32.0000
	Ni 1.5000
	d 1.0000
	Tr 0.0000
	Tf 1.0000 1.0000 1.0000 
	illum 2
	Ka 0.3412 0.6863 0.8471
	Kd 0.3412 0.6863 0.8471
	Ks 0.3500 0.3500 0.3500
	Ke 0.0000 0.0000 0.0000
